C:\Users\Admin\Dropbox\Project\MatrixMultiply\src\main\java\com\calango\common\multiply\matrixmultiplication\ThreadMultiply.java
C:\Users\Admin\Dropbox\Project\MatrixMultiply\src\main\java\com\calango\daolayer\model\History.java
C:\Users\Admin\Dropbox\Project\MatrixMultiply\src\main\java\com\calango\daolayer\dao\ElementsDAO.java
C:\Users\Admin\Dropbox\Project\MatrixMultiply\src\main\java\com\calango\common\multiply\matrixmultiplication\WorkQueue.java
C:\Users\Admin\Dropbox\Project\MatrixMultiply\src\main\java\com\calango\common\multiply\matrixmultiplication\MultiplicationImplementation.java
C:\Users\Admin\Dropbox\Project\MatrixMultiply\src\main\java\com\calango\daolayer\model\Matrix.java
C:\Users\Admin\Dropbox\Project\MatrixMultiply\src\main\java\com\calango\daolayer\dao\impl\JdbcMatrixDAO.java
C:\Users\Admin\Dropbox\Project\MatrixMultiply\src\main\java\com\calango\common\multiply\MatrixBeans\GeneralBean.java
C:\Users\Admin\Dropbox\Project\MatrixMultiply\src\main\java\com\calango\common\multiply\matrixmultiplication\Multiplying.java
C:\Users\Admin\Dropbox\Project\MatrixMultiply\src\main\java\com\calango\daolayer\model\Elements.java
C:\Users\Admin\Dropbox\Project\MatrixMultiply\src\main\java\com\calango\daolayer\dao\HistoryDAO.java
C:\Users\Admin\Dropbox\Project\MatrixMultiply\src\main\java\com\calango\TimeServlet.java
C:\Users\Admin\Dropbox\Project\MatrixMultiply\src\main\java\com\calango\daolayer\dao\impl\rowmapper\ElementsRowMapper.java
C:\Users\Admin\Dropbox\Project\MatrixMultiply\src\main\java\com\calango\daolayer\dao\impl\rowmapper\MatrixRowMapper.java
C:\Users\Admin\Dropbox\Project\MatrixMultiply\src\main\java\com\calango\daolayer\dao\MatrixDAO.java
C:\Users\Admin\Dropbox\Project\MatrixMultiply\src\main\java\com\calango\controller\MainController.java
C:\Users\Admin\Dropbox\Project\MatrixMultiply\src\main\java\com\calango\daolayer\model\UserList.java
C:\Users\Admin\Dropbox\Project\MatrixMultiply\src\main\java\com\calango\daolayer\dao\impl\JdbcHistoryDAO.java
C:\Users\Admin\Dropbox\Project\MatrixMultiply\src\main\java\com\calango\common\multiply\InsertRecord.java
C:\Users\Admin\Dropbox\Project\MatrixMultiply\src\main\java\com\calango\common\history\HistoryMatrixStorage.java
C:\Users\Admin\Dropbox\Project\MatrixMultiply\src\main\java\com\calango\common\multiply\MatrixReader.java
C:\Users\Admin\Dropbox\Project\MatrixMultiply\src\main\java\com\calango\common\multiply\MultiplyServlet.java
C:\Users\Admin\Dropbox\Project\MatrixMultiply\src\main\java\com\calango\common\history\GetDatesList.java
C:\Users\Admin\Dropbox\Project\MatrixMultiply\src\main\java\com\calango\common\multiply\MatrixBeans\MatrixResult.java
C:\Users\Admin\Dropbox\Project\MatrixMultiply\src\main\java\com\calango\daolayer\dao\impl\JdbcElementsDAO.java
C:\Users\Admin\Dropbox\Project\MatrixMultiply\src\main\java\com\calango\daolayer\dao\impl\JdbcUserListDAO.java
C:\Users\Admin\Dropbox\Project\MatrixMultiply\src\main\java\com\calango\common\multiply\MatrixBeans\MatrixBean.java
C:\Users\Admin\Dropbox\Project\MatrixMultiply\src\main\java\com\calango\common\history\HistoryServlet.java
C:\Users\Admin\Dropbox\Project\MatrixMultiply\src\main\java\com\calango\common\history\ShowHistory.java
